1 10000 262
10001 20000 279
20001 30000 308
30001 40000 324
40001 50000 314
50001 60000 340
60001 70000 335
70001 80000 351
80001 90000 333
90001 100000 333
100001 110000 354
110001 120000 349
120001 130000 344
130001 140000 344
140001 150000 375
150001 160000 383
160001 170000 370
170001 180000 347
180001 190000 365
190001 200000 360
200001 210000 373
210001 220000 386
220001 230000 368
230001 240000 443
240001 250000 368
250001 260000 363
260001 270000 407
270001 280000 407
280001 290000 389
290001 300000 371
300001 310000 371
310001 320000 384
320001 330000 384
330001 340000 366
340001 350000 441
350001 360000 379
360001 370000 410
370001 380000 423
380001 390000 436
390001 400000 405
400001 410000 405
410001 420000 449
420001 430000 418
430001 440000 400
440001 450000 369
450001 460000 387
460001 470000 444
470001 480000 382
480001 490000 413
490001 500000 426
500001 510000 426
510001 520000 470
520001 530000 408
530001 540000 377
540001 550000 452
550001 560000 421
560001 570000 421
570001 580000 390
580001 590000 434
590001 600000 403
600001 610000 403
610001 620000 447
620001 630000 509
630001 640000 416
640001 650000 416
650001 660000 429
660001 670000 442
670001 680000 385
680001 690000 398
690001 700000 442
700001 710000 504
710001 720000 411
720001 730000 411
730001 740000 424
740001 750000 393
750001 760000 424
760001 770000 468
770001 780000 437
780001 790000 406
790001 800000 468
800001 810000 406
810001 820000 450
820001 830000 450
830001 840000 525
840001 850000 419
850001 860000 419
860001 870000 388
870001 880000 432
880001 890000 445
890001 900000 370
900001 910000 445
910001 920000 476
920001 930000 476
930001 940000 507
940001 950000 383
950001 960000 414
960001 970000 414
970001 980000 458
980001 990000 427
990001 999999 440
463364 581329 470
58144 860379 525
875404 28559 525
301750 485307 449
104435 633614 509
876135 572610 525
438262 827905 509
878353 336887 525
690443 921253 525
116747 411995 449
48808 659896 509
797715 456304 509
946278 75593 525
645990 595647 509
51461 145351 375
766704 951496 525
103058 355591 443
838482 347513 525
958714 18389 525
338152 279819 389
553473 640800 509
684696 331437 509
77044 512673 470
417382 822993 509
807076 172688 509
147655 214277 383
599285 576034 434
455552 869713 525
59529 730448 509
224380 137572 386
144002 167743 383
808168 438420 509
882036 888632 445
943774 536460 525
505317 635045 509
188298 355395 443
526327 588483 452
723781 473142 509
509917 376567 449
395004 872153 525
158154 786428 509
415613 204362 449
280614 746237 509
250927 108789 443
398328 270581 441
247601 134926 443
922543 996621 507
139651 623026 470
765267 580847 509
877617 225474 525
