95 404 144
779 730 153
905 292 179
350 259 144
157 740 171
776 326 171
693 689 127
987 853 179
683 720 171
552 511 137
991 92 179
866 981 179
417 618 142
758 101 171
198 912 179
901 269 179
749 212 171
203 859 171
48 399 144
659 135 145
88 225 125
955 87 179
887 972 174
925 468 179
493 708 171
218 664 145
154 394 144
79 189 125
149 295 128
625 760 171
547 53 144
16 17 13
327 264 144
801 897 179
755 939 179
719 690 171
369 13 144
549 533 137
210 975 179
955 409 179
765 527 171
934 95 179
122 775 171
206 955 179
640 678 145
605 808 171
264 623 144
273 378 144
94 819 171
687 866 171
957 557 179
545 821 171
332 278 144
502 824 171
415 18 144
616 571 132
248 104 128
262 376 144
861 549 171
117 685 145
987 477 179
389 922 179
991 894 174
280 426 144
76 399 144
740 173 171
623 118 144
300 624 144
947 317 179
414 167 144
231 483 144
191 343 144
75 583 144
143 713 171
631 605 132
365 487 142
39 433 144
685 429 145
620 77 144
723 868 153
15 106 119
921 759 179
559 734 171
75 224 125
465 228 144
588 168 144
657 254 145
665 943 179
957 710 179
333 899 179
977 89 179
909 529 179
445 196 144
441 137 144
758 332 171
776 472 171
300 207 128
524 661 145
381 968 179
753 610 171
843 191 171
999 319 179
169 88 122
499 651 145
586 215 144
922 508 179
947 272 179
942 686 179
715 997 179
19 701 145
284 585 144
42 276 128
50 171 125
377 730 171
109 971 179
805 51 171
812 114 171
110 588 144
933 477 179
900 567 179
544 586 137
59 23 113
781 493 171
853 597 171
508 22 144
175 107 125
218 928 179
299 623 144
356 675 145
55 520 144
204 210 89
902 499 179
934 313 179
761 87 171
187 32 125
246 711 171
510 822 171
93 806 171
380 454 134
411 1 144
651 701 145
462 67 144
32 995 179
260 937 179
274 830 171
636 419 142
958 167 179
983 23 179
128 958 179
385 899 179
773 680 171
162 295 128
215 160 125
992 640 179
908 838 179
414 538 142
879 744 179
302 669 145
149 432 144
916 611 179
368 901 179
261 689 145
145 574 144
571 596 119
638 98 144
427 129 144
956 169 179
794 954 179
19 82 116
617 686 145
368 106 144
183 595 144
161 19 122
612 200 144
583 454 142
880 94 179
467 211 144
178 786 171
37 32 27
839 132 171
418 488 142
43 431 144
302 69 128
668 906 179
25 17 24
329 772 171
998 432 179
983 962 143
730 112 171
948386 181152 525
659596 408820 509
1 1 1
1 999999 525
999999 999999 259
